{
  "Comment.nvim": { "branch": "master", "commit": "0236521ea582747b58869cb72f70ccfa967d2e89" },
  "LuaSnip": { "branch": "master", "commit": "f3b3d3446bcbfa62d638b1903ff00a78b2b730a1" },
  "cmp-buffer": { "branch": "main", "commit": "3022dbc9166796b644a841a02de8dd1cc1d311fa" },
  "cmp-nvim-lsp": { "branch": "main", "commit": "5af77f54de1b16c34b23cba810150689a3a90312" },
  "cmp-path": { "branch": "main", "commit": "91ff86cd9c29299a64f968ebb45846c485725f23" },
  "cmp_luasnip": { "branch": "master", "commit": "05a9ab28b53f71d1aece421ef32fee2cb857a843" },
  "friendly-snippets": { "branch": "main", "commit": "dbd45e9ba76d535e4cba88afa1b7aa43bb765336" },
  "gitsigns.nvim": { "branch": "main", "commit": "2c2463dbd82eddd7dbab881c3a62cfbfbe3c67ae" },
  "lazy.nvim": { "branch": "main", "commit": "aedcd79811d491b60d0a6577a9c1701063c2a609" },
  "love2d.nvim": { "branch": "main", "commit": "bc195279976e3797dcbc958498751c0f010ab817" },
  "lsp-status.nvim": { "branch": "master", "commit": "54f48eb5017632d81d0fd40112065f1d062d0629" },
  "lsp_signature.nvim": { "branch": "master", "commit": "fed2c8389c148ff1dfdcdca63c2b48d08a50dea0" },
  "lualine.nvim": { "branch": "master", "commit": "7d131a8d3ba5016229e8a1d08bf8782acea98852" },
  "null-ls.nvim": { "branch": "main", "commit": "0010ea927ab7c09ef0ce9bf28c2b573fc302f5a7" },
  "nvim-autopairs": { "branch": "master", "commit": "90f824d37c0cb079d2764927e73af77faa9ba0ef" },
  "nvim-base16": { "branch": "master", "commit": "b3e9ec6a82c05b562cd71f40fe8964438a9ba64a" },
  "nvim-cmp": { "branch": "main", "commit": "04e0ca376d6abdbfc8b52180f8ea236cbfddf782" },
  "nvim-dap": { "branch": "master", "commit": "fc880e82059eb21c0fa896be60146e5f17680648" },
  "nvim-dap-ui": { "branch": "master", "commit": "9720eb5fa2f41988e8770f973cd11b76dd568a5d" },
  "nvim-lspconfig": { "branch": "master", "commit": "6b9f4bbe0aa1f351fd4845dc5fd4f3450b010f88" },
  "nvim-tree.lua": { "branch": "master", "commit": "030defdb6522f5f716d8201d20ca1a2baa57ca66" },
  "nvim-treesitter": { "branch": "master", "commit": "1398b1ba4619cef240abd496b500b95819c8c496" },
  "nvim-web-devicons": { "branch": "master", "commit": "14ac5887110b06b89a96881d534230dac3ed134d" },
  "plenary.nvim": { "branch": "master", "commit": "4f71c0c4a196ceb656c824a70792f3df3ce6bb6d" },
  "rust-tools.nvim": { "branch": "master", "commit": "676187908a1ce35ffcd727c654ed68d851299d3e" },
  "telescope.nvim": { "branch": "master", "commit": "b744cf59752aaa01561afb4223006de26f3836fd" },
  "trouble.nvim": { "branch": "main", "commit": "f1168feada93c0154ede4d1fe9183bf69bac54ea" },
  "vim-fugitive": { "branch": "master", "commit": "011cf4fcb93a9649ffc6dcdff56ef948f5d0f7cc" },
  "vim-multiple-cursors": { "branch": "master", "commit": "6456718e1d30b42c04b920c5413ca44f68f08759" },
  "vim-surround": { "branch": "master", "commit": "3d188ed2113431cf8dac77be61b842acb64433d9" },
  "vim-tidal": { "branch": "master", "commit": "e440fe5bdfe07f805e21e6872099685d38e8b761" }
}